Proyecto Final/UP_s_tb.vcd
$date
	Fri Nov 20 23:22:20 2020
$end
$version
	Icarus Verilog
$end
$timescale
	1s
$end
$scope module uP_students_tb $end
$var wire 4 ! DATA_BUS [3:0] $end
$var wire 1 " Z_FLAG $end
$var wire 8 # PROGRAM_BYTE [7:0] $end
$var wire 1 $ PHASE $end
$var wire 12 % PC [11:0] $end
$var wire 4 & OPERAND [3:0] $end
$var wire 4 ' INSTR [3:0] $end
$var wire 4 ( FF_OUT [3:0] $end
$var wire 1 ) C_FLAG $end
$var wire 12 * ADDRESS_RAM [11:0] $end
$var wire 4 + ACCU [3:0] $end
$var reg 4 , PUSHBUTTONS [3:0] $end
$var reg 1 - clk $end
$var reg 1 . reset $end
$var real 1 / points $end
$scope module dut $end
$var wire 1 - clk $end
$var wire 4 0 data_bus [3:0] $end
$var wire 1 $ phase $end
$var wire 4 1 pushbuttons [3:0] $end
$var wire 1 . reset $end
$var wire 1 2 z_flag_in $end
$var wire 1 " z_flag $end
$var wire 1 3 weRAM $end
$var wire 8 4 program_byte [7:0] $end
$var wire 1 5 ph $end
$var wire 12 6 pc [11:0] $end
$var wire 4 7 operand [3:0] $end
$var wire 1 8 oeOprnd $end
$var wire 1 9 oeIN $end
$var wire 1 : oeALU $end
$var wire 1 ; loadPC $end
$var wire 1 < loadOut $end
$var wire 1 = loadFlags $end
$var wire 1 > loadA $end
$var wire 4 ? instr [3:0] $end
$var wire 1 @ incPC $end
$var wire 1 A csRAM $end
$var wire 1 B c_flag_in $end
$var wire 1 ) c_flag $end
$var wire 4 C alu_out [3:0] $end
$var wire 12 D address_ram [11:0] $end
$var wire 4 E accu [3:0] $end
$var wire 3 F S [2:0] $end
$var wire 4 G FF_out [3:0] $end
$scope module AC $end
$var wire 1 - clk $end
$var wire 1 . reset $end
$var wire 4 H in [3:0] $end
$var wire 1 > enable_Ac $end
$var reg 4 I out_Ac [3:0] $end
$upscope $end
$scope module AL $end
$var wire 4 J A [3:0] $end
$var wire 4 K B [3:0] $end
$var wire 1 2 Z_alu $end
$var wire 4 L Y [3:0] $end
$var wire 3 M S [2:0] $end
$var wire 1 B C_alu $end
$var reg 5 N t [4:0] $end
$upscope $end
$scope module ALUBUFF $end
$var wire 4 O in [3:0] $end
$var wire 4 P out_bf [3:0] $end
$var wire 1 : enable_bf $end
$upscope $end
$scope module D $end
$var wire 4 Q instr [3:0] $end
$var wire 1 5 phase $end
$var wire 12 R out [11:0] $end
$var wire 1 " Ze $end
$var wire 1 ) C $end
$var reg 7 S Din [6:0] $end
$var reg 3 T S [2:0] $end
$var reg 1 A csRAM $end
$var reg 1 @ incPC $end
$var reg 1 > loadA $end
$var reg 1 = loadFlags $end
$var reg 1 < loadOut $end
$var reg 1 ; loadPC $end
$var reg 1 : oeALU $end
$var reg 1 9 oeIN $end
$var reg 1 8 oeOprnd $end
$var reg 1 3 weRAM $end
$upscope $end
$scope module Fet $end
$var wire 1 - clk $end
$var wire 1 . reset $end
$var wire 8 U in [7:0] $end
$var wire 1 5 enable_ftch $end
$var reg 8 V out_ftch [7:0] $end
$upscope $end
$scope module Fla $end
$var wire 1 B C $end
$var wire 1 2 Ze $end
$var wire 1 - clk $end
$var wire 1 = enable_flags $end
$var wire 1 . reset $end
$var reg 1 ) C1 $end
$var reg 1 " Ze1 $end
$upscope $end
$scope module INPUT $end
$var wire 1 9 enable_bf $end
$var wire 4 W in [3:0] $end
$var wire 4 X out_bf [3:0] $end
$upscope $end
$scope module OPERAND $end
$var wire 1 8 enable_bf $end
$var wire 4 Y in [3:0] $end
$var wire 4 Z out_bf [3:0] $end
$upscope $end
$scope module OUTFF $end
$var wire 1 - clk $end
$var wire 1 < enable_Ac $end
$var wire 4 [ in [3:0] $end
$var wire 1 . reset $end
$var reg 4 \ out_Ac [3:0] $end
$upscope $end
$scope module P $end
$var wire 1 - clk $end
$var wire 1 @ enable_cntr $end
$var wire 12 ] loadValue [11:0] $end
$var wire 1 ; load_cntr $end
$var wire 12 ^ outValue [11:0] $end
$var wire 1 . reset $end
$var reg 12 _ cont [11:0] $end
$upscope $end
$scope module Ph $end
$var wire 1 - clk $end
$var wire 1 . reset $end
$var reg 1 5 out_ph $end
$upscope $end
$scope module RA $end
$var wire 12 ` address_RAM [11:0] $end
$var wire 1 A csRAM $end
$var wire 4 a data_RAM [3:0] $end
$var wire 1 3 weRAM $end
$var reg 4 b out_data [3:0] $end
$upscope $end
$scope module RO $end
$var wire 12 c address_ROM [11:0] $end
$var wire 8 d data_ROM [7:0] $end
$upscope $end
$upscope $end
$upscope $end
$enddefinitions $end
#0
$dumpvars
bx d
bx c
bx b
bx a
bx `
bx _
bx ^
bx ]
bx \
bx [
bx Z
bx Y
bx X
bx W
bx V
bx U
bx T
bx S
bx R
bx Q
bx P
bx O
bx N
bx M
bx L
bx K
bx J
bx I
bx H
bx G
bx F
bx E
bx D
bx C
xB
xA
x@
bx ?
x>
x=
x<
x;
x:
x9
x8
bx 7
bx 6
x5
bx 4
x3
x2
bx 1
bx 0
r0 /
0.
1-
bx ,
bx +
bx *
x)
bx (
bx '
bx &
bx %
x$
bx #
x"
bx !
$end
#1
b0 !
b0 0
b0 K
b0 P
b0 X
b0 Z
b0 [
b0 a
0B
b0 C
b0 H
b0 L
b0 O
12
b1000 R
b0 N
b0 F
b0 M
b0 T
0<
08
09
1:
03
0A
0=
0>
0;
1@
b0 S
b0 &
b0 7
b0 Y
b0 '
b0 ?
b0 Q
b0 (
b0 G
b0 \
b0 +
b0 E
b0 I
b0 J
0$
05
0"
0)
b0 V
b1001001 `
b1001001 ]
b1001001 *
b1001001 D
b1001001 #
b1001001 4
b1001001 U
b1001001 d
b0 %
b0 6
b0 ^
b0 _
b0 c
1.
#2
b110 ,
b110 1
b110 W
0.
#5
0-
#10
b1001 C
b1001 H
b1001 L
b1001 O
02
b1001 N
b1001 !
b1001 0
b1001 K
b1001 P
b1001 X
b1001 Z
b1001 [
b1001 a
b11010000010 R
b10 F
b10 M
b10 T
18
0:
1=
1>
0@
b1001 &
b1001 7
b1001 Y
b100 '
b100 ?
b100 Q
b100001 S
b100101010000 `
b100101010000 ]
b100101010000 *
b100101010000 D
b1010000 #
b1010000 4
b1010000 U
b1010000 d
b1 %
b1 6
b1 ^
b1 _
b1 c
b1001001 V
1$
15
1-
#15
0-
#20
b1000 R
b1001 !
b1001 0
b1001 K
b1001 P
b1001 X
b1001 Z
b1001 [
b1001 a
r1 /
b0 F
b0 M
b0 T
08
1:
0=
0>
1@
b101000 S
b1010000 `
b1010000 ]
b1010000 *
b1010000 D
b0 &
b0 7
b0 Y
b101 '
b101 ?
b101 Q
b1001 +
b1001 E
b1001 I
b1001 J
0$
05
b1010000 V
1-
#25
0-
#30
b110 C
b110 H
b110 L
b110 O
b110 N
b110 !
b110 0
b110 K
b110 P
b110 X
b110 Z
b110 [
b110 a
b11010000100 R
b10 F
b10 M
b10 T
19
0:
1=
1>
0@
b101001 S
b11010000 `
b11010000 ]
b11010000 *
b11010000 D
b11010000 #
b11010000 4
b11010000 U
b11010000 d
b10 %
b10 6
b10 ^
b10 _
b10 c
1$
15
1-
#35
0-
#40
b1000 R
r1.6 /
b0 F
b0 M
b0 T
09
1:
0=
0>
1@
b1101000 S
b1101 '
b1101 ?
b1101 Q
b110 +
b110 E
b110 I
b110 J
0$
05
b11010000 V
1-
#45
0-
#50
b1001 R
1<
0@
b1101001 S
b10101001 `
b10101001 ]
b10101001 *
b10101001 D
b10101001 #
b10101001 4
b10101001 U
b10101001 d
b11 %
b11 6
b11 ^
b11 _
b11 c
1$
15
1-
#55
0-
#60
b1000 R
r2.2 /
0<
1@
b1010000 S
b100110101001 `
b100110101001 ]
b100110101001 *
b100110101001 D
b1001 &
b1001 7
b1001 Y
b1010 '
b1010 ?
b1010 Q
b110 (
b110 G
b110 \
0$
05
b10101001 V
1-
#65
0-
#70
b1111 C
b1111 H
b1111 L
b1111 O
b1111 N
b1001 !
b1001 0
b1001 K
b1001 P
b1001 X
b1001 Z
b1001 [
b1001 a
b11011000010 R
b11 F
b11 M
b11 T
18
0:
1=
1>
0@
b1010001 S
b100110100001 `
b100110100001 ]
b100110100001 *
b100110100001 D
b10100001 #
b10100001 4
b10100001 U
b10100001 d
b100 %
b100 6
b100 ^
b100 _
b100 c
1$
15
1-
#75
0-
#80
b1000 R
b1111 !
b1111 0
b1111 K
b1111 P
b1111 X
b1111 Z
b1111 [
b1111 a
r2.5 /
b0 F
b0 M
b0 T
08
1:
0=
0>
1@
b1010000 S
b110100001 `
b110100001 ]
b110100001 *
b110100001 D
b1 &
b1 7
b1 Y
b1111 +
b1111 E
b1111 I
b1111 J
0$
05
b10100001 V
1-
#85
0-
#90
1B
b0 C
b0 H
b0 L
b0 O
12
b10000 N
b1 !
b1 0
b1 K
b1 P
b1 X
b1 Z
b1 [
b1 a
b11011000010 R
b11 F
b11 M
b11 T
18
0:
1=
1>
0@
b1010001 S
b101000101 `
b101000101 ]
b101000101 *
b101000101 D
b1000101 #
b1000101 4
b1000101 U
b1000101 d
b101 %
b101 6
b101 ^
b101 _
b101 c
1$
15
1-
#95
0-
#100
0B
b1000 R
b0 !
b0 0
b0 K
b0 P
b0 X
b0 Z
b0 [
b0 a
b0 N
r2.8 /
b0 F
b0 M
b0 T
08
1:
0=
0>
1@
b100110 S
b10101000101 `
b10101000101 ]
b10101000101 *
b10101000101 D
b101 &
b101 7
b101 Y
b100 '
b100 ?
b100 Q
b0 +
b0 E
b0 I
b0 J
0$
05
1"
1)
b1000101 V
1-
#105
0-
#110
b101 C
b101 H
b101 L
b101 O
02
b101 N
b101 !
b101 0
b101 K
b101 P
b101 X
b101 Z
b101 [
b101 a
b11010000010 R
b10 F
b10 M
b10 T
18
0:
1=
1>
0@
b100111 S
b10111101010 `
b10111101010 ]
b10111101010 *
b10111101010 D
b11101010 #
b11101010 4
b11101010 U
b11101010 d
b110 %
b110 6
b110 ^
b110 _
b110 c
1$
15
1-
#115
0-
#120
b1000 R
b101 !
b101 0
b101 K
b101 P
b101 X
b101 Z
b101 [
b101 a
b0 F
b0 M
b0 T
08
1:
0=
0>
1@
b1110000 S
b101011101010 `
b101011101010 ]
b101011101010 *
b101011101010 D
b1010 &
b1010 7
b1010 Y
b1110 '
b1110 ?
b1110 Q
b101 +
b101 E
b101 I
b101 J
0$
05
0"
0)
b11101010 V
1-
#125
0-
#130
b1111 C
b1111 H
b1111 L
b1111 O
b11111 N
b1010 !
b1010 0
b1010 K
b1010 P
b1010 X
b1010 Z
b1010 [
b1010 a
b11100000010 R
b100 F
b100 M
b100 T
18
0:
1=
1>
0@
b1110001 S
b101011101111 `
b101011101111 ]
b101011101111 *
b101011101111 D
b11101111 #
b11101111 4
b11101111 U
b11101111 d
b111 %
b111 6
b111 ^
b111 _
b111 c
1$
15
1-
#135
0-
#140
b1000 R
b1111 !
b1111 0
b1111 K
b1111 P
b1111 X
b1111 Z
b1111 [
b1111 a
b1111 N
r3.1 /
b0 F
b0 M
b0 T
08
1:
0=
0>
1@
b1110000 S
b111111101111 `
b111111101111 ]
b111111101111 *
b111111101111 D
b1111 &
b1111 7
b1111 Y
b1111 +
b1111 E
b1111 I
b1111 J
0$
05
b11101111 V
1-
#145
0-
#150
b0 C
b0 H
b0 L
b0 O
12
b10000 N
b1111 !
b1111 0
b1111 K
b1111 P
b1111 X
b1111 Z
b1111 [
b1111 a
b11100000010 R
b100 F
b100 M
b100 T
18
0:
1=
1>
0@
b1110001 S
b111101000010 `
b111101000010 ]
b111101000010 *
b111101000010 D
b1000010 #
b1000010 4
b1000010 U
b1000010 d
b1000 %
b1000 6
b1000 ^
b1000 _
b1000 c
1$
15
1-
#155
0-
#160
b1000 R
b0 !
b0 0
b0 K
b0 P
b0 X
b0 Z
b0 [
b0 a
b0 N
r3.399999999999999 /
b0 F
b0 M
b0 T
08
1:
0=
0>
1@
b100010 S
b1001000010 `
b1001000010 ]
b1001000010 *
b1001000010 D
b10 &
b10 7
b10 Y
b100 '
b100 ?
b100 Q
b0 +
b0 E
b0 I
b0 J
0$
05
1"
b1000010 V
1-
#165
0-
#170
b10 C
b10 H
b10 L
b10 O
02
b10 N
b10 !
b10 0
b10 K
b10 P
b10 X
b10 Z
b10 [
b10 a
b11010000010 R
b10 F
b10 M
b10 T
18
0:
1=
1>
0@
b100011 S
b1000100010 `
b1000100010 ]
b1000100010 *
b1000100010 D
b100010 #
b100010 4
b100010 U
b100010 d
b1001 %
b1001 6
b1001 ^
b1001 _
b1001 c
1$
15
1-
#175
0-
#180
b1000 R
b0 F
b0 M
b0 T
08
1:
0=
0>
1@
b10000 S
b10 '
b10 ?
b10 Q
b10 +
b10 E
b10 I
b10 J
0$
05
0"
b100010 V
1-
#185
0-
#190
b0 C
b0 H
b0 L
b0 O
12
b0 N
b10 !
b10 0
b10 K
b10 P
b10 X
b10 Z
b10 [
b10 a
b1001000010 R
b1 F
b1 M
b1 T
18
0:
1=
0@
b10001 S
b1000100001 `
b1000100001 ]
b1000100001 *
b1000100001 D
b100001 #
b100001 4
b100001 U
b100001 d
b1010 %
b1010 6
b1010 ^
b1010 _
b1010 c
1$
15
1-
#195
0-
#200
b10 C
b10 H
b10 L
b10 O
02
b10 N
b1000 R
b10 !
b10 0
b10 K
b10 P
b10 X
b10 Z
b10 [
b10 a
r3.6 /
b0 F
b0 M
b0 T
08
1:
0=
1@
b10010 S
b100100001 `
b100100001 ]
b100100001 *
b100100001 D
b1 &
b1 7
b1 Y
0$
05
1"
b100001 V
1-
#205
0-
#210
b1 C
b1 H
b1 L
b1 O
b1 N
b1 !
b1 0
b1 K
b1 P
b1 X
b1 Z
b1 [
b1 a
b1001000010 R
b1 F
b1 M
b1 T
18
0:
1=
0@
b10011 S
b100100011 `
b100100011 ]
b100100011 *
b100100011 D
b100011 #
b100011 4
b100011 U
b100011 d
b1011 %
b1011 6
b1011 ^
b1011 _
b1011 c
1$
15
1-
#215
0-
#220
b10 C
b10 H
b10 L
b10 O
b10 N
b1000 R
b10 !
b10 0
b10 K
b10 P
b10 X
b10 Z
b10 [
b10 a
r3.8 /
b0 F
b0 M
b0 T
08
1:
0=
1@
b10000 S
b1100100011 `
b1100100011 ]
b1100100011 *
b1100100011 D
b11 &
b11 7
b11 Y
0$
05
0"
b100011 V
1-
#225
0-
#230
1B
b1111 C
b1111 H
b1111 L
b1111 O
b11111 N
b11 !
b11 0
b11 K
b11 P
b11 X
b11 Z
b11 [
b11 a
b1001000010 R
b1 F
b1 M
b1 T
18
0:
1=
0@
b10001 S
b1101000001 `
b1101000001 ]
b1101000001 *
b1101000001 D
b1000001 #
b1000001 4
b1000001 U
b1000001 d
b1100 %
b1100 6
b1100 ^
b1100 _
b1100 c
1$
15
1-
#235
0-
#240
0B
b10 C
b10 H
b10 L
b10 O
b10 N
b1000 R
b10 !
b10 0
b10 K
b10 P
b10 X
b10 Z
b10 [
b10 a
r4 /
b0 F
b0 M
b0 T
08
1:
0=
1@
b100100 S
b101000001 `
b101000001 ]
b101000001 *
b101000001 D
b1 &
b1 7
b1 Y
b100 '
b100 ?
b100 Q
0$
05
1)
b1000001 V
1-
#245
0-
#250
b1 C
b1 H
b1 L
b1 O
b1 N
b1 !
b1 0
b1 K
b1 P
b1 X
b1 Z
b1 [
b1 a
b11010000010 R
b10 F
b10 M
b10 T
18
0:
1=
1>
0@
b100101 S
b101110000 `
b101110000 ]
b101110000 *
b101110000 D
b1110000 #
b1110000 4
b1110000 U
b1110000 d
b1101 %
b1101 6
b1101 ^
b1101 _
b1101 c
1$
15
1-
#255
0-
#260
b1000 R
b1 !
b1 0
b1 K
b1 P
b1 X
b1 Z
b1 [
b1 a
b0 F
b0 M
b0 T
08
1:
0=
0>
1@
b111000 S
b1110000 `
b1110000 ]
b1110000 *
b1110000 D
b0 &
b0 7
b0 Y
b111 '
b111 ?
b111 Q
b1 +
b1 E
b1 I
b1 J
0$
05
0)
b1110000 V
1-
#265
0-
#270
b1 !
b1 0
b1 K
b1 P
b1 X
b1 Z
b1 [
b1 a
b111000 R
13
1A
b111001 S
b0 `
b0 ]
b0 *
b0 D
b0 #
b0 4
b0 U
b0 d
b1110 %
b1110 6
b1110 ^
b1110 _
b1110 c
1$
15
1-
#275
0-
#280
b1000 R
03
0A
b100000 S
b1110 &
b1110 7
b1110 Y
b100 '
b100 ?
b100 Q
0$
05
b1001110 V
b111001001110 `
b111001001110 ]
b111001001110 *
b111001001110 D
b1001110 #
b1001110 4
b1001110 U
b1001110 d
b1111 %
b1111 6
b1111 ^
b1111 _
b1111 c
1-
#285
0-
#290
b1110 C
b1110 H
b1110 L
b1110 O
b1110 N
b1110 !
b1110 0
b1110 K
b1110 P
b1110 X
b1110 Z
b1110 [
b1110 a
b11010000010 R
b10 F
b10 M
b10 T
18
0:
1=
1>
0@
b100001 S
b111001110000 `
b111001110000 ]
b111001110000 *
b111001110000 D
b1110000 #
b1110000 4
b1110000 U
b1110000 d
b10000 %
b10000 6
b10000 ^
b10000 _
b10000 c
1$
15
1-
#295
0-
#300
b1000 R
b1110 !
b1110 0
b1110 K
b1110 P
b1110 X
b1110 Z
b1110 [
b1110 a
b0 F
b0 M
b0 T
08
1:
0=
0>
1@
b111000 S
b1110000 `
b1110000 ]
b1110000 *
b1110000 D
b0 &
b0 7
b0 Y
b111 '
b111 ?
b111 Q
b1110 +
b1110 E
b1110 I
b1110 J
0$
05
b1110000 V
1-
#305
0-
#310
b1110 !
b1110 0
b1110 K
b1110 P
b1110 X
b1110 Z
b1110 [
b1110 a
b111000 R
13
1A
b111001 S
b10100000 `
b10100000 ]
b10100000 *
b10100000 D
b10100000 #
b10100000 4
b10100000 U
b10100000 d
b10001 %
b10001 6
b10001 ^
b10001 _
b10001 c
1$
15
1-
#315
0-
#320
b1000 R
03
0A
b100000 S
b100 '
b100 ?
b100 Q
0$
05
b1000000 V
b1000000 `
b1000000 ]
b1000000 *
b1000000 D
b1000000 #
b1000000 4
b1000000 U
b1000000 d
b10010 %
b10010 6
b10010 ^
b10010 _
b10010 c
1-
#325
0-
#330
b0 C
b0 H
b0 L
b0 O
12
b0 N
b0 !
b0 0
b0 K
b0 P
b0 X
b0 Z
b0 [
b0 a
b11010000010 R
b10 F
b10 M
b10 T
18
0:
1=
1>
0@
b100001 S
b1100000 `
b1100000 ]
b1100000 *
b1100000 D
b1100000 #
b1100000 4
b1100000 U
b1100000 d
b10011 %
b10011 6
b10011 ^
b10011 _
b10011 c
1$
15
1-
#335
0-
#340
b1000 R
b0 F
b0 M
b0 T
08
1:
0=
0>
1@
b110010 S
b110 '
b110 ?
b110 Q
b0 +
b0 E
b0 I
b0 J
0$
05
1"
b1100000 V
1-
#345
0-
#350
b1 C
b1 H
b1 L
b1 O
02
b1 N
b1 !
b1 0
b1 K
b1 P
b1 X
b1 Z
b1 [
b1 a
b11010100000 R
b1 b
b10 F
b10 M
b10 T
0:
1A
1=
1>
b110011 S
b0 `
b0 ]
b0 *
b0 D
b0 #
b0 4
b0 U
b0 d
b10100 %
b10100 6
b10100 ^
b10100 _
b10100 c
1$
15
1-
#355
0-
#360
b1000 R
b1 !
b1 0
b1 K
b1 P
b1 X
b1 Z
b1 [
b1 a
b0 F
b0 M
b0 T
1:
0A
0=
0>
b110000 S
bx b
b1 +
b1 E
b1 I
b1 J
0$
05
0"
b1100000 `
b1100000 ]
b1100000 *
b1100000 D
b1100000 #
b1100000 4
b1100000 U
b1100000 d
b10101 %
b10101 6
b10101 ^
b10101 _
b10101 c
1-
#365
0-
#370
b1110 C
b1110 H
b1110 L
b1110 O
02
b1110 N
b1110 !
b1110 0
b1110 K
b1110 P
b1110 X
b1110 Z
b1110 [
b1110 a
b11010100000 R
b1110 b
b10 F
b10 M
b10 T
0:
1A
1=
1>
b110001 S
b10100000 `
b10100000 ]
b10100000 *
b10100000 D
b10100000 #
b10100000 4
b10100000 U
b10100000 d
b10110 %
b10110 6
b10110 ^
b10110 _
b10110 c
1$
15
1-
#375
0-
#380
b1000 R
b1110 !
b1110 0
b1110 K
b1110 P
b1110 X
b1110 Z
b1110 [
b1110 a
r4.5 /
b0 F
b0 M
b0 T
1:
0A
0=
0>
b100000 S
b1 &
b1 7
b1 Y
b100 '
b100 ?
b100 Q
bx b
b1110 +
b1110 E
b1110 I
b1110 J
0$
05
b1000001 V
b101000001 `
b101000001 ]
b101000001 *
b101000001 D
b1000001 #
b1000001 4
b1000001 U
b1000001 d
b10111 %
b10111 6
b10111 ^
b10111 _
b10111 c
1-
#385
0-
#390
b1 C
b1 H
b1 L
b1 O
b1 N
b1 !
b1 0
b1 K
b1 P
b1 X
b1 Z
b1 [
b1 a
b11010000010 R
b10 F
b10 M
b10 T
18
0:
1=
1>
0@
b100001 S
b110110000 `
b110110000 ]
b110110000 *
b110110000 D
b10110000 #
b10110000 4
b10110000 U
b10110000 d
b11000 %
b11000 6
b11000 ^
b11000 _
b11000 c
1$
15
1-
#395
0-
#400
b1000 R
b1 !
b1 0
b1 K
b1 P
b1 X
b1 Z
b1 [
b1 a
b0 F
b0 M
b0 T
08
1:
0=
0>
1@
b1011000 S
b10110000 `
b10110000 ]
b10110000 *
b10110000 D
b0 &
b0 7
b0 Y
b1011 '
b1011 ?
b1011 Q
b1 +
b1 E
b1 I
b1 J
0$
05
b10110000 V
1-
#405
0-
#410
0B
b1111 C
b1111 H
b1111 L
b1111 O
02
b1111 N
b1110 !
b1110 0
b1110 K
b1110 P
b1110 X
b1110 Z
b1110 [
b1110 a
b11011100000 R
b1110 b
b11 F
b11 M
b11 T
0:
1A
1=
1>
b1011001 S
b10100000 `
b10100000 ]
b10100000 *
b10100000 D
b10100000 #
b10100000 4
b10100000 U
b10100000 d
b11001 %
b11001 6
b11001 ^
b11001 _
b11001 c
1$
15
1-
#415
0-
#420
b1000 R
b1111 !
b1111 0
b1111 K
b1111 P
b1111 X
b1111 Z
b1111 [
b1111 a
r4.75 /
b0 F
b0 M
b0 T
1:
0A
0=
0>
b1011000 S
bx b
b1111 +
b1111 E
b1111 I
b1111 J
0$
05
b10110000 `
b10110000 ]
b10110000 *
b10110000 D
b10110000 #
b10110000 4
b10110000 U
b10110000 d
b11010 %
b11010 6
b11010 ^
b11010 _
b11010 c
1-
#425
0-
#430
1B
b0 C
b0 H
b0 L
b0 O
12
b10000 N
b1 !
b1 0
b1 K
b1 P
b1 X
b1 Z
b1 [
b1 a
b11011100000 R
b1 b
b11 F
b11 M
b11 T
0:
1A
1=
1>
b1011001 S
b0 `
b0 ]
b0 *
b0 D
b0 #
b0 4
b0 U
b0 d
b11011 %
b11011 6
b11011 ^
b11011 _
b11011 c
1$
15
1-
#435
0-
#440
0B
b0 !
b0 0
b0 K
b0 P
b0 X
b0 Z
b0 [
b0 a
b1000 R
b0 N
r5 /
b0 F
b0 M
b0 T
1:
0A
0=
0>
b100110 S
b1110 &
b1110 7
b1110 Y
b100 '
b100 ?
b100 Q
b0 +
b0 E
b0 I
b0 J
0$
05
1"
1)
b1001110 V
b111001001110 `
b111001001110 ]
b111001001110 *
b111001001110 D
b1001110 #
b1001110 4
b1001110 U
b1001110 d
b11100 %
b11100 6
b11100 ^
b11100 _
b11100 c
1-
#445
0-
#450
b1110 C
b1110 H
b1110 L
b1110 O
02
b1110 N
b1110 !
b1110 0
b1110 K
b1110 P
b1110 X
b1110 Z
b1110 [
b1110 a
b11010000010 R
b10 F
b10 M
b10 T
18
0:
1=
1>
0@
b100111 S
b111011110000 `
b111011110000 ]
b111011110000 *
b111011110000 D
b11110000 #
b11110000 4
b11110000 U
b11110000 d
b11101 %
b11101 6
b11101 ^
b11101 _
b11101 c
1$
15
1-
#455
0-
#460
b1000 R
b1110 !
b1110 0
b1110 K
b1110 P
b1110 X
b1110 Z
b1110 [
b1110 a
b0 F
b0 M
b0 T
08
1:
0=
0>
1@
b1111000 S
b11110000 `
b11110000 ]
b11110000 *
b11110000 D
b0 &
b0 7
b0 Y
b1111 '
b1111 ?
b1111 Q
b1110 +
b1110 E
b1110 I
b1110 J
0$
05
0"
0)
b11110000 V
1-
#465
0-
#470
b1 C
b1 H
b1 L
b1 O
b10001 N
b1110 !
b1110 0
b1110 K
b1110 P
b1110 X
b1110 Z
b1110 [
b1110 a
b11100100000 R
b1110 b
b100 F
b100 M
b100 T
0:
1A
1=
1>
b1111001 S
b10100000 `
b10100000 ]
b10100000 *
b10100000 D
b10100000 #
b10100000 4
b10100000 U
b10100000 d
b11110 %
b11110 6
b11110 ^
b11110 _
b11110 c
1$
15
1-
#475
0-
#480
b1000 R
b1 !
b1 0
b1 K
b1 P
b1 X
b1 Z
b1 [
b1 a
b1 N
r5.25 /
b0 F
b0 M
b0 T
1:
0A
0=
0>
b1111000 S
bx b
b1 +
b1 E
b1 I
b1 J
0$
05
b11110000 `
b11110000 ]
b11110000 *
b11110000 D
b11110000 #
b11110000 4
b11110000 U
b11110000 d
b11111 %
b11111 6
b11111 ^
b11111 _
b11111 c
1-
#485
0-
#490
b1111 C
b1111 H
b1111 L
b1111 O
b11111 N
b1110 !
b1110 0
b1110 K
b1110 P
b1110 X
b1110 Z
b1110 [
b1110 a
b11100100000 R
b1110 b
b100 F
b100 M
b100 T
0:
1A
1=
1>
b1111001 S
b10100000 `
b10100000 ]
b10100000 *
b10100000 D
b10100000 #
b10100000 4
b10100000 U
b10100000 d
b100000 %
b100000 6
b100000 ^
b100000 _
b100000 c
1$
15
1-
#495
0-
#500
b1000 R
b1111 !
b1111 0
b1111 K
b1111 P
b1111 X
b1111 Z
b1111 [
b1111 a
b1111 N
b0 F
b0 M
b0 T
1:
0A
0=
0>
b111000 S
b111 '
b111 ?
b111 Q
bx b
b1111 +
b1111 E
b1111 I
b1111 J
0$
05
b1110000 V
b1110000 `
b1110000 ]
b1110000 *
b1110000 D
b1110000 #
b1110000 4
b1110000 U
b1110000 d
b100001 %
b100001 6
b100001 ^
b100001 _
b100001 c
1-
#505
0-
#510
b1111 !
b1111 0
b1111 K
b1111 P
b1111 X
b1111 Z
b1111 [
b1111 a
b111000 R
13
1A
b111001 S
b11111111 `
b11111111 ]
b11111111 *
b11111111 D
b11111111 #
b11111111 4
b11111111 U
b11111111 d
b100010 %
b100010 6
b100010 ^
b100010 _
b100010 c
1$
15
1-
#515
0-
#520
b1000 R
03
0A
b1111000 S
b1111 '
b1111 ?
b1111 Q
0$
05
b11110000 V
b11110000 `
b11110000 ]
b11110000 *
b11110000 D
b11110000 #
b11110000 4
b11110000 U
b11110000 d
b100011 %
b100011 6
b100011 ^
b100011 _
b100011 c
1-
#525
0-
#530
b0 C
b0 H
b0 L
b0 O
12
b10000 N
b1111 !
b1111 0
b1111 K
b1111 P
b1111 X
b1111 Z
b1111 [
b1111 a
b11100100000 R
b1111 b
b100 F
b100 M
b100 T
0:
1A
1=
1>
b1111001 S
b11111111 `
b11111111 ]
b11111111 *
b11111111 D
b11111111 #
b11111111 4
b11111111 U
b11111111 d
b100100 %
b100100 6
b100100 ^
b100100 _
b100100 c
1$
15
1-
#535
0-
#540
b1000 R
b0 !
b0 0
b0 K
b0 P
b0 X
b0 Z
b0 [
b0 a
b0 N
r5.5 /
b0 F
b0 M
b0 T
1:
0A
0=
0>
b100010 S
b10 &
b10 7
b10 Y
b100 '
b100 ?
b100 Q
bx b
b0 +
b0 E
b0 I
b0 J
0$
05
1"
b1000010 V
b1001000010 `
b1001000010 ]
b1001000010 *
b1001000010 D
b1000010 #
b1000010 4
b1000010 U
b1000010 d
b100101 %
b100101 6
b100101 ^
b100101 _
b100101 c
1-
#545
0-
#550
b10 C
b10 H
b10 L
b10 O
02
b10 N
b10 !
b10 0
b10 K
b10 P
b10 X
b10 Z
b10 [
b10 a
b11010000010 R
b10 F
b10 M
b10 T
18
0:
1=
1>
0@
b100011 S
b1001110000 `
b1001110000 ]
b1001110000 *
b1001110000 D
b1110000 #
b1110000 4
b1110000 U
b1110000 d
b100110 %
b100110 6
b100110 ^
b100110 _
b100110 c
1$
15
1-
#555
0-
#560
b1000 R
b10 !
b10 0
b10 K
b10 P
b10 X
b10 Z
b10 [
b10 a
b0 F
b0 M
b0 T
08
1:
0=
0>
1@
b111000 S
b1110000 `
b1110000 ]
b1110000 *
b1110000 D
b0 &
b0 7
b0 Y
b111 '
b111 ?
b111 Q
b10 +
b10 E
b10 I
b10 J
0$
05
0"
b1110000 V
1-
#565
0-
#570
b10 !
b10 0
b10 K
b10 P
b10 X
b10 Z
b10 [
b10 a
b111000 R
13
1A
b111001 S
b1 `
b1 ]
b1 *
b1 D
b1 #
b1 4
b1 U
b1 d
b100111 %
b100111 6
b100111 ^
b100111 _
b100111 c
1$
15
1-
#575
0-
#580
b1000 R
03
0A
b11000 S
b11 '
b11 ?
b11 Q
0$
05
b110000 V
b110000 `
b110000 ]
b110000 *
b110000 D
b110000 #
b110000 4
b110000 U
b110000 d
b101000 %
b101000 6
b101000 ^
b101000 _
b101000 c
1-
#585
0-
#590
0B
b0 C
b0 H
b0 L
b0 O
12
b0 N
b10 !
b10 0
b10 K
b10 P
b10 X
b10 Z
b10 [
b10 a
b1001100000 R
b10 b
b1 F
b1 M
b1 T
0:
1A
1=
b11001 S
b1 `
b1 ]
b1 *
b1 D
b1 #
b1 4
b1 U
b1 d
b101001 %
b101001 6
b101001 ^
b101001 _
b101001 c
1$
15
1-
#595
0-
